<?xml version="1.0" encoding="UTF-8"?>
<DataFileEntity>
   <description></description>
   <name>Mgoal games</name>
   <tag></tag>
   <containsHeaders>true</containsHeaders>
   <csvSeperator></csvSeperator>
   <dataFileGUID>ab2c8479-11c4-4bfb-b9cc-ee56027821e2</dataFileGUID>
   <dataSourceUrl></dataSourceUrl>
   <driver>InternalData</driver>
   <data>888+Gold</data>
   <internalDataColumns>
      <columnIndex>0</columnIndex>
      <name>GameName2</name>
      <size>1</size>
   </internalDataColumns>
   <isInternalPath>false</isInternalPath>
   <query></query>
   <secureUserAccount>false</secureUserAccount>
   <sheetName></sheetName>
   <usingGlobalDBSetting>false</usingGlobalDBSetting>
</DataFileEntity>
